{
  "openapi": "3.0.1",
  "info": {
    "title": "OpenAPI definition",
    "version": "v0"
  },
  "servers": [
    {
      "url": "http://localhost:8080/api/v2",
      "description": "Generated server url"
    }
  ],
  "paths": {
    "/AUTH_REFRESH_TOKEN/{ambiente}": {
      "post": {
        "tags": ["login-controller"],
        "operationId": "refreshToken",
        "parameters": [
          {
            "name": "ambiente",
            "in": "path",
            "required": true,
            "schema": {
              "pattern": "cap|prod",
              "type": "string"
            }
          }
        ],
        "requestBody": {
          "content": {
            "application/json": {
              "schema": {
                "$ref": "#/components/schemas/AuthenticationRequestWithToken"
              }
            }
          },
          "required": true
        },
        "responses": {
          "200": {
            "description": "OK",
            "content": {
              "*/*": {
                "schema": {
                  "$ref": "#/components/schemas/AuthenticationResponse"
                }
              }
            }
          }
        }
      }
    },
    "/GENERAR_TAREA_REVISAR/{ambiente}": {
      "post": {
        "tags": ["generar-tarea-controller"],
        "operationId": "revisarGEDO",
        "parameters": [
          {
            "name": "ambiente",
            "in": "path",
            "required": true,
            "schema": {
              "pattern": "cap|prod",
              "type": "string"
            }
          }
        ],
        "requestBody": {
          "content": {
            "application/json": {
              "schema": {
                "$ref": "#/components/schemas/GenerarTareaRevisarDTO"
              }
            }
          },
          "required": true
        },
        "responses": {
          "200": {
            "description": "OK",
            "content": {
              "*/*": {
                "schema": {
                  "$ref": "#/components/schemas/ResponseExternalGenerarTarea"
                }
              }
            }
          }
        }
      }
    },
    "/GENERAR_TAREA_FIRMAR/{ambiente}": {
      "post": {
        "tags": ["generar-tarea-controller"],
        "operationId": "firmarGEDO",
        "parameters": [
          {
            "name": "ambiente",
            "in": "path",
            "required": true,
            "schema": {
              "pattern": "cap|prod",
              "type": "string"
            }
          }
        ],
        "requestBody": {
          "content": {
            "application/json": {
              "schema": {
                "$ref": "#/components/schemas/GenerarTareaFirmarDTO"
              }
            }
          },
          "required": true
        },
        "responses": {
          "200": {
            "description": "OK",
            "content": {
              "*/*": {
                "schema": {
                  "$ref": "#/components/schemas/ResponseExternalGenerarTarea"
                }
              }
            }
          }
        }
      }
    },
    "/GENERAR_TAREA_CONFECCIONAR/{ambiente}": {
      "post": {
        "tags": ["generar-tarea-controller"],
        "operationId": "confeccionarGEDO",
        "parameters": [
          {
            "name": "ambiente",
            "in": "path",
            "required": true,
            "schema": {
              "pattern": "cap|prod",
              "type": "string"
            }
          }
        ],
        "requestBody": {
          "content": {
            "application/json": {
              "schema": {
                "$ref": "#/components/schemas/GenerarTareaConfeccionarDTO"
              }
            }
          },
          "required": true
        },
        "responses": {
          "200": {
            "description": "OK",
            "content": {
              "*/*": {
                "schema": {
                  "$ref": "#/components/schemas/ResponseExternalGenerarTarea"
                }
              }
            }
          }
        }
      }
    },
    "/GENERAR_PASE_SECTOR/{ambiente}": {
      "post": {
        "tags": ["generar-pase-controller"],
        "operationId": "generarPaseSector",
        "parameters": [
          {
            "name": "ambiente",
            "in": "path",
            "required": true,
            "schema": {
              "pattern": "cap|prod",
              "type": "string"
            }
          }
        ],
        "requestBody": {
          "content": {
            "application/json": {
              "schema": {
                "$ref": "#/components/schemas/GenerarPaseSectorDTO"
              }
            }
          },
          "required": true
        },
        "responses": {
          "200": {
            "description": "OK",
            "content": {
              "*/*": {
                "schema": {
                  "type": "string"
                }
              }
            }
          }
        }
      }
    },
    "/GENERAR_PASE_REPARTICION/{ambiente}": {
      "post": {
        "tags": ["generar-pase-controller"],
        "operationId": "generarPaseReparticion",
        "parameters": [
          {
            "name": "ambiente",
            "in": "path",
            "required": true,
            "schema": {
              "pattern": "cap|prod",
              "type": "string"
            }
          }
        ],
        "requestBody": {
          "content": {
            "application/json": {
              "schema": {
                "$ref": "#/components/schemas/GenerarPaseReparticionDTO"
              }
            }
          },
          "required": true
        },
        "responses": {
          "200": {
            "description": "OK",
            "content": {
              "*/*": {
                "schema": {
                  "type": "string"
                }
              }
            }
          }
        }
      }
    },
    "/GENERAR_PASE_PERSONA/{ambiente}": {
      "post": {
        "tags": ["generar-pase-controller"],
        "operationId": "generarPasePersona",
        "parameters": [
          {
            "name": "ambiente",
            "in": "path",
            "required": true,
            "schema": {
              "pattern": "cap|prod",
              "type": "string"
            }
          }
        ],
        "requestBody": {
          "content": {
            "application/json": {
              "schema": {
                "$ref": "#/components/schemas/GenerarPasePersonaDTO"
              }
            }
          },
          "required": true
        },
        "responses": {
          "200": {
            "description": "OK",
            "content": {
              "*/*": {
                "schema": {
                  "type": "string"
                }
              }
            }
          }
        }
      }
    },
    "/GENERAR_EXPEDIENTE/{ambiente}": {
      "post": {
        "tags": ["generar-expediente-controller"],
        "operationId": "generarExpedienteInterno",
        "parameters": [
          {
            "name": "ambiente",
            "in": "path",
            "required": true,
            "schema": {
              "pattern": "cap|prod",
              "type": "string"
            }
          }
        ],
        "requestBody": {
          "content": {
            "application/json": {
              "schema": {
                "$ref": "#/components/schemas/GenerarExpedienteDTO"
              }
            }
          },
          "required": true
        },
        "responses": {
          "200": {
            "description": "OK",
            "content": {
              "*/*": {
                "schema": {
                  "$ref": "#/components/schemas/GenerarExpedienteResponse"
                }
              }
            }
          }
        }
      }
    },
    "/GENERAR_DOCUMENTO/{ambiente}": {
      "post": {
        "tags": ["generar-documento-controller"],
        "operationId": "crearDocumento",
        "parameters": [
          {
            "name": "ambiente",
            "in": "path",
            "required": true,
            "schema": {
              "pattern": "cap|prod",
              "type": "string"
            }
          }
        ],
        "requestBody": {
          "content": {
            "application/json": {
              "schema": {
                "$ref": "#/components/schemas/GenerarDocumentoDTO"
              }
            }
          },
          "required": true
        },
        "responses": {
          "200": {
            "description": "OK",
            "content": {
              "*/*": {
                "schema": {
                  "$ref": "#/components/schemas/ResponseExternalGenerarDocumento"
                }
              }
            }
          }
        }
      }
    },
    "/AUTH_AUTHENTICATE/{ambiente}": {
      "post": {
        "tags": ["login-controller"],
        "operationId": "createAuthenticationToken",
        "parameters": [
          {
            "name": "ambiente",
            "in": "path",
            "required": true,
            "schema": {
              "pattern": "cap|prod",
              "type": "string"
            }
          }
        ],
        "requestBody": {
          "content": {
            "application/json": {
              "schema": {
                "$ref": "#/components/schemas/AuthenticationRequest"
              }
            }
          },
          "required": true
        },
        "responses": {
          "200": {
            "description": "OK",
            "content": {
              "*/*": {
                "schema": {
                  "$ref": "#/components/schemas/AuthenticationResponse"
                }
              }
            }
          }
        }
      }
    },
    "/VINCULAR_DOCUMENTO/{codigoExpediente}/{ambiente}": {
      "patch": {
        "tags": ["vincular-documento-controller"],
        "operationId": "vincularDocumento",
        "parameters": [
          {
            "name": "codigoExpediente",
            "in": "path",
            "required": true,
            "schema": {
              "type": "string"
            }
          },
          {
            "name": "ambiente",
            "in": "path",
            "required": true,
            "schema": {
              "pattern": "cap|prod",
              "type": "string"
            }
          }
        ],
        "requestBody": {
          "content": {
            "application/json": {
              "schema": {
                "$ref": "#/components/schemas/VincularDocumentoDTO"
              }
            }
          },
          "required": true
        },
        "responses": {
          "200": {
            "description": "OK",
            "content": {
              "*/*": {
                "schema": {
                  "type": "string"
                }
              }
            }
          }
        }
      }
    },
    "/OBTENER_DETALLE_EXPEDIENTE/{anio}/{numero}/{ambiente}": {
      "get": {
        "tags": ["consultar-expedientes-controller"],
        "operationId": "getExpediente",
        "parameters": [
          {
            "name": "ambiente",
            "in": "path",
            "required": true,
            "schema": {
              "type": "string"
            }
          },
          {
            "name": "anio",
            "in": "path",
            "required": true,
            "schema": {
              "type": "string"
            }
          },
          {
            "name": "numero",
            "in": "path",
            "required": true,
            "schema": {
              "type": "string"
            }
          }
        ],
        "responses": {
          "200": {
            "description": "OK",
            "content": {
              "*/*": {
                "schema": {
                  "$ref": "#/components/schemas/DetalleExpedienteResponse"
                }
              }
            }
          }
        }
      }
    },
    "/DESCARGAR_DOCUMENTO/{codigoSADE}/{ambiente}": {
      "get": {
        "tags": ["consultar-documento-controller"],
        "operationId": "descargarDocumento",
        "parameters": [
          {
            "name": "codigoSADE",
            "in": "path",
            "required": true,
            "schema": {
              "type": "string"
            }
          },
          {
            "name": "ambiente",
            "in": "path",
            "required": true,
            "schema": {
              "pattern": "cap|prod",
              "type": "string"
            }
          }
        ],
        "responses": {
          "200": {
            "description": "OK",
            "content": {
              "*/*": {
                "schema": {
                  "$ref": "#/components/schemas/ConsultarDocumentoPdfResponse"
                }
              }
            }
          }
        }
      }
    },
    "/CONSULTAR_TIPOS_DOCUMENTOS/{ambiente}": {
      "get": {
        "tags": ["consultar-tipo-documento-controller"],
        "operationId": "consultarTipoDocumento",
        "parameters": [
          {
            "name": "ambiente",
            "in": "path",
            "required": true,
            "schema": {
              "pattern": "cap|prod",
              "type": "string"
            }
          }
        ],
        "responses": {
          "200": {
            "description": "OK",
            "content": {
              "*/*": {
                "schema": {
                  "$ref": "#/components/schemas/ConsultarTiposDocumentoResponse"
                }
              }
            }
          }
        }
      }
    },
    "/CONSULTAR_REPARTICIONES/{ambiente}": {
      "get": {
        "tags": ["consultar-reparticiones-controller"],
        "operationId": "consultarReparticiones",
        "parameters": [
          {
            "name": "ambiente",
            "in": "path",
            "required": true,
            "schema": {
              "pattern": "cap|prod",
              "type": "string"
            }
          }
        ],
        "responses": {
          "200": {
            "description": "OK",
            "content": {
              "*/*": {
                "schema": {
                  "$ref": "#/components/schemas/GetAllDataResponse"
                }
              }
            }
          }
        }
      }
    },
    "/CONSULTAR_EXPEDIENTES/{ambiente}": {
      "get": {
        "tags": ["consultar-expedientes-controller"],
        "operationId": "getExpedientes",
        "parameters": [
          {
            "name": "ambiente",
            "in": "path",
            "required": true,
            "schema": {
              "type": "string"
            }
          },
          {
            "name": "trata",
            "in": "query",
            "required": false,
            "schema": {
              "type": "string"
            }
          },
          {
            "name": "fechaDesde",
            "in": "query",
            "required": false,
            "schema": {
              "type": "string"
            }
          },
          {
            "name": "fechaHasta",
            "in": "query",
            "required": false,
            "schema": {
              "type": "string"
            }
          },
          {
            "name": "numero",
            "in": "query",
            "required": false,
            "schema": {
              "type": "string"
            }
          },
          {
            "name": "creador",
            "in": "query",
            "required": false,
            "schema": {
              "type": "string"
            }
          },
          {
            "name": "descripcion",
            "in": "query",
            "required": false,
            "schema": {
              "type": "string"
            }
          },
          {
            "name": "anio",
            "in": "query",
            "required": false,
            "schema": {
              "type": "string"
            }
          },
          {
            "name": "reparticion",
            "in": "query",
            "required": false,
            "schema": {
              "type": "string"
            }
          }
        ],
        "responses": {
          "200": {
            "description": "OK",
            "content": {
              "*/*": {
                "schema": {
                  "type": "array",
                  "items": {
                    "$ref": "#/components/schemas/ExpedienteResponse"
                  }
                }
              }
            }
          }
        }
      }
    },
    "/CONSULTAR_DOCUMENTO_POR_SADE/{codigoSADE}/{ambiente}": {
      "get": {
        "tags": ["consultar-documento-controller"],
        "operationId": "consultarDocumentoBySADE",
        "parameters": [
          {
            "name": "codigoSADE",
            "in": "path",
            "required": true,
            "schema": {
              "type": "string"
            }
          },
          {
            "name": "ambiente",
            "in": "path",
            "required": true,
            "schema": {
              "pattern": "cap|prod",
              "type": "string"
            }
          }
        ],
        "responses": {
          "200": {
            "description": "OK",
            "content": {
              "*/*": {
                "schema": {
                  "$ref": "#/components/schemas/ConsultaDocumento"
                }
              }
            }
          }
        }
      }
    },
    "/CONSULTAR_DOCUMENTO_POR_PROCESO/{codigoProceso}/{ambiente}": {
      "get": {
        "tags": ["consultar-documento-controller"],
        "operationId": "consultarDocumentoByProceso",
        "parameters": [
          {
            "name": "codigoProceso",
            "in": "path",
            "required": true,
            "schema": {
              "type": "string"
            }
          },
          {
            "name": "ambiente",
            "in": "path",
            "required": true,
            "schema": {
              "pattern": "cap|prod",
              "type": "string"
            }
          }
        ],
        "responses": {
          "200": {
            "description": "OK",
            "content": {
              "*/*": {
                "schema": {
                  "$ref": "#/components/schemas/ResponseExternalConsultaNumeroSade"
                }
              }
            }
          }
        }
      }
    }
  },
  "components": {
    "schemas": {
      "AuthenticationRequestWithToken": {
        "type": "object",
        "properties": {
          "jwt": {
            "type": "string"
          }
        }
      },
      "AuthenticationResponse": {
        "type": "object",
        "properties": {
          "jwt": {
            "type": "string"
          }
        }
      },
      "Archivo": {
        "type": "object",
        "properties": {
          "nombre": {
            "type": "string"
          },
          "archivo": {
            "type": "array",
            "items": {
              "type": "string",
              "format": "byte"
            }
          }
        }
      },
      "GenerarTareaRevisarDTO": {
        "required": [
          "acronimo",
          "archivo",
          "referencia",
          "tipoArchivo",
          "usuarioReceptor"
        ],
        "type": "object",
        "properties": {
          "acronimo": {
            "type": "string"
          },
          "enviarCorreoReceptor": {
            "type": "boolean"
          },
          "destinatarios": {
            "type": "array",
            "items": {
              "type": "string"
            }
          },
          "destinatariosConCopia": {
            "type": "array",
            "items": {
              "type": "string"
            }
          },
          "destinatariosConCopiaOculta": {
            "type": "array",
            "items": {
              "type": "string"
            }
          },
          "recibirAvisoDeFirma": {
            "type": "boolean"
          },
          "mensaje": {
            "type": "string"
          },
          "mensajeADestinatario": {
            "type": "string"
          },
          "usuarioReceptor": {
            "type": "string"
          },
          "referencia": {
            "type": "string"
          },
          "tipoArchivo": {
            "type": "string"
          },
          "archivo": {
            "type": "array",
            "items": {
              "type": "string",
              "format": "byte"
            }
          },
          "embebidos": {
            "type": "array",
            "items": {
              "$ref": "#/components/schemas/Archivo"
            }
          },
          "archivosTrabajo": {
            "type": "array",
            "items": {
              "$ref": "#/components/schemas/Archivo"
            }
          },
          "meensajeADestinatario": {
            "type": "string"
          }
        }
      },
      "ResponseExternalGenerarTarea": {
        "type": "object",
        "properties": {
          "licencia": {
            "type": "string"
          },
          "processId": {
            "type": "string"
          },
          "usuarioApoderado": {
            "type": "string"
          }
        }
      },
      "GenerarTareaFirmarDTO": {
        "required": [
          "acronimo",
          "archivo",
          "firmantes",
          "referencia",
          "tipoArchivo"
        ],
        "type": "object",
        "properties": {
          "acronimo": {
            "type": "string"
          },
          "enviarCorreoReceptor": {
            "type": "boolean"
          },
          "destinatarios": {
            "type": "array",
            "items": {
              "type": "string"
            }
          },
          "destinatariosConCopia": {
            "type": "array",
            "items": {
              "type": "string"
            }
          },
          "destinatariosConCopiaOculta": {
            "type": "array",
            "items": {
              "type": "string"
            }
          },
          "recibirAvisoDeFirma": {
            "type": "boolean"
          },
          "mensaje": {
            "type": "string"
          },
          "mensajeADestinatario": {
            "type": "string"
          },
          "firmantes": {
            "type": "array",
            "items": {
              "type": "string"
            }
          },
          "referencia": {
            "type": "string"
          },
          "tipoArchivo": {
            "type": "string"
          },
          "archivo": {
            "type": "array",
            "items": {
              "type": "string",
              "format": "byte"
            }
          },
          "embebidos": {
            "type": "array",
            "items": {
              "$ref": "#/components/schemas/Archivo"
            }
          },
          "archivosTrabajo": {
            "type": "array",
            "items": {
              "$ref": "#/components/schemas/Archivo"
            }
          },
          "meensajeADestinatario": {
            "type": "string"
          }
        }
      },
      "GenerarTareaConfeccionarDTO": {
        "required": ["acronimo", "usuarioReceptor"],
        "type": "object",
        "properties": {
          "acronimo": {
            "type": "string"
          },
          "enviarCorreoReceptor": {
            "type": "boolean"
          },
          "destinatarios": {
            "type": "array",
            "items": {
              "type": "string"
            }
          },
          "destinatariosConCopia": {
            "type": "array",
            "items": {
              "type": "string"
            }
          },
          "destinatariosConCopiaOculta": {
            "type": "array",
            "items": {
              "type": "string"
            }
          },
          "recibirAvisoDeFirma": {
            "type": "boolean"
          },
          "mensaje": {
            "type": "string"
          },
          "mensajeADestinatario": {
            "type": "string"
          },
          "usuarioReceptor": {
            "type": "string"
          },
          "meensajeADestinatario": {
            "type": "string"
          }
        }
      },
      "GenerarPaseSectorDTO": {
        "required": ["motivo", "sectorDestino", "sistema"],
        "type": "object",
        "properties": {
          "codigoExpediente": {
            "type": "string"
          },
          "motivo": {
            "type": "string"
          },
          "sistema": {
            "type": "string"
          },
          "sectorDestino": {
            "type": "string"
          }
        }
      },
      "GenerarPaseReparticionDTO": {
        "required": ["motivo", "reparticionDestino", "sistema"],
        "type": "object",
        "properties": {
          "codigoExpediente": {
            "type": "string"
          },
          "motivo": {
            "type": "string"
          },
          "sistema": {
            "type": "string"
          },
          "reparticionDestino": {
            "type": "string"
          },
          "vaMesa": {
            "type": "boolean"
          }
        }
      },
      "GenerarPasePersonaDTO": {
        "required": ["motivo", "sistema", "usuarioDestino"],
        "type": "object",
        "properties": {
          "codigoExpediente": {
            "type": "string"
          },
          "motivo": {
            "type": "string"
          },
          "sistema": {
            "type": "string"
          },
          "usuarioDestino": {
            "type": "string"
          }
        }
      },
      "GenerarExpedienteDTO": {
        "required": ["motivo", "sistema", "trata"],
        "type": "object",
        "properties": {
          "sistema": {
            "type": "string"
          },
          "trata": {
            "type": "string"
          },
          "motivo": {
            "type": "string"
          },
          "email": {
            "type": "string"
          },
          "telefono": {
            "type": "string"
          },
          "descripcion": {
            "type": "string"
          }
        }
      },
      "GenerarExpedienteResponse": {
        "type": "object",
        "properties": {
          "nroExpediente": {
            "type": "string"
          }
        }
      },
      "GenerarDocumentoDTO": {
        "required": [
          "acronimo",
          "archivo",
          "referencia",
          "sistemaOrigen",
          "tipoArchivo"
        ],
        "type": "object",
        "properties": {
          "acronimo": {
            "type": "string"
          },
          "referencia": {
            "type": "string"
          },
          "sistemaOrigen": {
            "type": "string"
          },
          "archivo": {
            "type": "array",
            "items": {
              "type": "string",
              "format": "byte"
            }
          },
          "tipoArchivo": {
            "type": "string"
          },
          "destinatarios": {
            "type": "array",
            "items": {
              "type": "string"
            }
          },
          "destinatariosCopia": {
            "type": "array",
            "items": {
              "type": "string"
            }
          },
          "destinatariosCopiaOculta": {
            "type": "array",
            "items": {
              "type": "string"
            }
          },
          "embebidos": {
            "type": "array",
            "items": {
              "$ref": "#/components/schemas/Archivo"
            }
          },
          "mensaje": {
            "type": "string"
          }
        }
      },
      "ResponseExternalGenerarDocumento": {
        "type": "object",
        "properties": {
          "licencia": {
            "type": "string"
          },
          "numero": {
            "type": "string"
          },
          "numeroEspecial": {
            "type": "string"
          },
          "urlArchivoGenerado": {
            "type": "string"
          }
        }
      },
      "AuthenticationRequest": {
        "type": "object",
        "properties": {
          "username": {
            "type": "string"
          },
          "password": {
            "type": "string"
          }
        }
      },
      "VincularDocumentoDTO": {
        "required": ["documentos", "sistema"],
        "type": "object",
        "properties": {
          "sistema": {
            "type": "string"
          },
          "documentos": {
            "type": "array",
            "items": {
              "type": "string"
            }
          }
        }
      },
      "DetalleExpedienteResponse": {
        "type": "object",
        "properties": {
          "FECHA_CREACION": {
            "type": "string"
          },
          "FECHA_MODIFICACION": {
            "type": "string"
          },
          "DESCRIPCION": {
            "type": "string"
          },
          "USUARIO_CREADOR": {
            "type": "string"
          },
          "TIPO_DOCUMENTO": {
            "type": "string"
          },
          "ID_WORKFLOW": {
            "type": "string"
          },
          "ANIO": {
            "type": "integer",
            "format": "int32"
          },
          "NUMERO": {
            "type": "integer",
            "format": "int32"
          },
          "CODIGO_REPARTICION_ACTUACION": {
            "type": "string"
          },
          "CODIGO_REPARTICION_USUARIO": {
            "type": "string"
          },
          "SOLICITUD_INICIADORA": {
            "type": "integer",
            "format": "int32"
          },
          "ESTADO": {
            "type": "string"
          },
          "SISTEMA_CREADOR": {
            "type": "string"
          },
          "ASSIGNEE_EE": {
            "type": "string"
          },
          "CODIGO_TRATA": {
            "type": "string"
          },
          "DOCUMENTOS": {
            "type": "array",
            "items": {
              "$ref": "#/components/schemas/Documento"
            }
          },
          "PASES": {
            "type": "array",
            "items": {
              "$ref": "#/components/schemas/Pase"
            }
          }
        }
      },
      "Documento": {
        "type": "object",
        "properties": {
          "NUMERO_SADE": {
            "type": "string"
          },
          "MOTIVO": {
            "type": "string"
          },
          "POSICION": {
            "type": "integer",
            "format": "int32"
          },
          "FECHA_CREACION_DOCUMENTO": {
            "type": "string"
          },
          "FECHA_ASOCIACION": {
            "type": "string"
          }
        }
      },
      "Pase": {
        "type": "object",
        "properties": {
          "ORD_HIST": {
            "type": "integer",
            "format": "int32"
          },
          "MOTIVO": {
            "type": "string"
          },
          "REMITENTE": {
            "type": "string"
          },
          "DESTINATARIO": {
            "type": "string"
          },
          "CODIGO_REPARTICION_DESTINO": {
            "type": "string"
          },
          "DESCRIPCION_REPARTICION_DESTINO": {
            "type": "string"
          },
          "CODIGO_REPARTICION_ORIGEN": {
            "type": "string"
          },
          "DESCRIPCION_REPARTICION_ORIGEN": {
            "type": "string"
          },
          "TIPO_OPERACION": {
            "type": "string"
          },
          "FECHA_PASE": {
            "type": "string"
          }
        }
      },
      "ConsultarDocumentoPdfResponse": {
        "type": "object",
        "properties": {
          "return": {
            "type": "array",
            "items": {
              "type": "string",
              "format": "byte"
            }
          }
        }
      },
      "ConsultarTiposDocumentoResponse": {
        "type": "object",
        "properties": {
          "return": {
            "type": "array",
            "items": {
              "$ref": "#/components/schemas/ResponseTipoDocumento"
            }
          }
        }
      },
      "ResponseMetadata": {
        "type": "object",
        "properties": {
          "nombre": {
            "type": "string"
          },
          "obligatoriedad": {
            "type": "boolean"
          },
          "tipo": {
            "type": "string"
          }
        }
      },
      "ResponseTipoDocumento": {
        "type": "object",
        "properties": {
          "acronimo": {
            "type": "string"
          },
          "codigoTipoDocumentoSade": {
            "type": "string"
          },
          "descripcion": {
            "type": "string"
          },
          "esAutomatica": {
            "type": "boolean"
          },
          "esComunicable": {
            "type": "boolean"
          },
          "esConfidencial": {
            "type": "boolean"
          },
          "esEmbebido": {
            "type": "boolean"
          },
          "esEspecial": {
            "type": "boolean"
          },
          "esFirmaConjunta": {
            "type": "boolean"
          },
          "esFirmaExterna": {
            "type": "boolean"
          },
          "esManual": {
            "type": "boolean"
          },
          "esNotificable": {
            "type": "boolean"
          },
          "estado": {
            "type": "string"
          },
          "familia": {
            "type": "string"
          },
          "idFormulario": {
            "type": "string"
          },
          "listaDatosVariables": {
            "type": "array",
            "items": {
              "$ref": "#/components/schemas/ResponseMetadata"
            }
          },
          "nombre": {
            "type": "string"
          },
          "permiteCopiaDeExpediente": {
            "type": "boolean"
          },
          "permiteRepetirFirmante": {
            "type": "boolean"
          },
          "tieneTemplate": {
            "type": "boolean"
          },
          "tieneToken": {
            "type": "boolean"
          },
          "tipoProduccion": {
            "type": "string"
          }
        }
      },
      "ComplexData": {
        "type": "object",
        "properties": {
          "codigo": {
            "type": "string"
          },
          "nombre": {
            "type": "string"
          }
        }
      },
      "GetAllDataResponse": {
        "type": "object",
        "properties": {
          "return": {
            "type": "array",
            "items": {
              "$ref": "#/components/schemas/ComplexData"
            }
          }
        }
      },
      "ExpedienteResponse": {
        "type": "object",
        "properties": {
          "FECHA_CREACION": {
            "type": "string"
          },
          "FECHA_MODIFICACION": {
            "type": "object"
          },
          "DESCRIPCION": {
            "type": "string"
          },
          "USUARIO_CREADOR": {
            "type": "string"
          },
          "TIPO_DOCUMENTO": {
            "type": "string"
          },
          "ID_WORKFLOW": {
            "type": "string"
          },
          "ANIO": {
            "type": "integer",
            "format": "int32"
          },
          "NUMERO": {
            "type": "integer",
            "format": "int32"
          },
          "CODIGO_REPARTICION_ACTUACION": {
            "type": "string"
          },
          "CODIGO_REPARTICION_USUARIO": {
            "type": "string"
          },
          "SOLICITUD_INICIADORA": {
            "type": "integer",
            "format": "int32"
          },
          "ESTADO": {
            "type": "string"
          },
          "SISTEMA_CREADOR": {
            "type": "string"
          },
          "ASSIGNEE_EE": {
            "type": "string"
          },
          "CODIGO_TRATA": {
            "type": "string"
          },
          "NRO_SADE": {
            "type": "string"
          }
        }
      },
      "ArchivoDeTrabajoResponse": {
        "type": "object",
        "properties": {
          "dataArchivo": {
            "type": "array",
            "items": {
              "type": "string",
              "format": "byte"
            }
          },
          "definitivo": {
            "type": "boolean"
          },
          "fechaAsociacion": {
            "type": "string",
            "format": "date-time"
          },
          "id": {
            "type": "integer",
            "format": "int32"
          },
          "idTask": {
            "type": "string"
          },
          "nombreArchivo": {
            "type": "string"
          },
          "pathRelativo": {
            "type": "string"
          },
          "usuarioAsociador": {
            "type": "string"
          }
        }
      },
      "CampoFormularioDetalleResponse": {
        "type": "object",
        "properties": {
          "etiqueta": {
            "type": "string"
          },
          "item": {
            "type": "array",
            "items": {
              "$ref": "#/components/schemas/ItemComponenteDetalleResponse"
            }
          },
          "nombre": {
            "type": "string"
          },
          "separadorRepetidor": {
            "type": "string"
          },
          "valor": {
            "type": "string"
          }
        }
      },
      "CamposFormularioResponse": {
        "type": "object",
        "properties": {
          "campo": {
            "type": "array",
            "items": {
              "$ref": "#/components/schemas/CampoFormularioDetalleResponse"
            }
          }
        }
      },
      "ConsultaDocumento": {
        "type": "object",
        "properties": {
          "camposFormulario": {
            "$ref": "#/components/schemas/CamposFormularioResponse"
          },
          "datosPropios": {
            "type": "array",
            "items": {
              "$ref": "#/components/schemas/DocumentoMetadataResponse"
            }
          },
          "estadoValidez": {
            "type": "string"
          },
          "fechaCreacion": {
            "type": "string",
            "format": "date-time"
          },
          "listaArchivosDeTrabajo": {
            "type": "array",
            "items": {
              "$ref": "#/components/schemas/ArchivoDeTrabajoResponse"
            }
          },
          "listaFirmantes": {
            "type": "array",
            "items": {
              "type": "string"
            }
          },
          "listaHistorial": {
            "type": "array",
            "items": {
              "$ref": "#/components/schemas/HistorialResponse"
            }
          },
          "numeroDiasValidez": {
            "type": "integer",
            "format": "int32"
          },
          "numeroEspecial": {
            "type": "string"
          },
          "numeroSade": {
            "type": "string"
          },
          "puedeVerDocumento": {
            "type": "boolean"
          },
          "referencia": {
            "type": "string"
          },
          "tipoDiaValiez": {
            "type": "string"
          },
          "tipoDocumento": {
            "type": "string"
          },
          "tipoValidez": {
            "type": "string"
          },
          "urlArchivo": {
            "type": "string"
          },
          "listadoExpedientes": {
            "type": "array",
            "items": {
              "type": "string"
            }
          }
        }
      },
      "DocumentoMetadataResponse": {
        "type": "object",
        "properties": {
          "nombre": {
            "type": "string"
          },
          "obligatoriedad": {
            "type": "boolean"
          },
          "orden": {
            "type": "integer",
            "format": "int32"
          },
          "tipo": {
            "type": "string"
          },
          "valor": {
            "type": "string"
          }
        }
      },
      "HistorialResponse": {
        "type": "object",
        "properties": {
          "actividad": {
            "type": "string"
          },
          "fechaFin": {
            "type": "string",
            "format": "date-time"
          },
          "fechaInicio": {
            "type": "string",
            "format": "date-time"
          },
          "id": {
            "type": "integer",
            "format": "int32"
          },
          "mensaje": {
            "type": "string"
          },
          "userName": {
            "type": "string"
          },
          "usuario": {
            "type": "string"
          },
          "workflowOrigen": {
            "type": "string"
          }
        }
      },
      "ItemComponenteDetalleResponse": {
        "type": "object",
        "properties": {
          "etiqueta": {
            "type": "string"
          },
          "nombre": {
            "type": "string"
          },
          "valor": {
            "type": "string"
          }
        }
      },
      "ResponseExternalConsultaNumeroSade": {
        "type": "object",
        "properties": {
          "estadoTarea": {
            "type": "string"
          },
          "idError": {
            "type": "string"
          },
          "motivo": {
            "type": "string"
          },
          "numeroSade": {
            "type": "string"
          }
        }
      }
    }
  }
}
GDErest.json
Mostrando GDErest.json. 